{

"native": "cardano"
"assets": "Art"
"datumsomething": "114244"
"encoding": "tap"

"artist": "A"
"title": dynamically inserted fingerprint
"collection": "fingerprint"
"unique": "3,420"

"abstract":["conceptual","performative", "recursive", "hermeticism", "heresy","renaissance"]

{"fingerprint": dynamically inserted} 
"policy": insert before hand?


"instruction": "fingerprint.pseudocode"



"estate": "estate.anjenga"
"provenance": "cryptographic"
"archive": "on-chain"
"chain": "cardano"

"signed": "a.signature"
"calver": 2022-06-04

"entropy": hash

}
